<?xml version="1.0" encoding="utf-8"?>
<!-- Generator: Adobe Illustrator 16.0.0, SVG Export Plug-In . SVG Version: 6.00 Build 0)  -->
<!DOCTYPE svg PUBLIC "-//W3C//DTD SVG 1.1//EN" "http://www.w3.org/Graphics/SVG/1.1/DTD/svg11.dtd">
<svg version="1.1" id="Ebene_1" xmlns="http://www.w3.org/2000/svg" xmlns:xlink="http://www.w3.org/1999/xlink" x="0px" y="0px"
	 width="400px" height="160px" viewBox="0 0 400 160" enable-background="new 0 0 400 160" xml:space="preserve">
<g>
	<path fill="#585857" d="M206.387,59.027V37.559c0-0.379-0.32-0.699-0.699-0.699c-0.285,0-0.521,0.151-0.615,0.387l-8.952,20.349
		l-8.943-20.267c-0.097-0.289-0.349-0.469-0.654-0.469c-0.367,0-0.666,0.314-0.666,0.699v21.468c0,0.385,0.299,0.698,0.666,0.698
		c0.378,0,0.696-0.32,0.696-0.698V40.673l8.226,18.676c0.123,0.242,0.362,0.376,0.676,0.376c0.377,0,0.559-0.205,0.648-0.386
		l8.254-18.702v18.39c0,0.385,0.299,0.698,0.664,0.698C206.066,59.725,206.387,59.405,206.387,59.027"/>
	<path fill="#585857" d="M213.699,59.461h13.512c0.342,0,0.6-0.258,0.6-0.601c0-0.354-0.262-0.632-0.6-0.632h-12.814v-9.977h11.824
		c0.338,0,0.602-0.278,0.602-0.633c0-0.342-0.258-0.6-0.602-0.6h-11.824V38.39h12.322c0.342,0,0.631-0.291,0.631-0.634
		c0-0.337-0.277-0.601-0.631-0.601h-13.02c-0.381,0-0.666,0.287-0.666,0.667v20.942C213.033,59.148,213.332,59.461,213.699,59.461"
		/>
	<path fill="#585857" d="M239.037,37.155h-6.018c-0.385,0-0.697,0.299-0.697,0.666v20.942c0,0.379,0.318,0.698,0.697,0.698h6.018
		c5.281,0,10.627-3.831,10.627-11.152C249.664,40.986,244.318,37.155,239.037,37.155 M248.266,48.31
		c0,6.815-4.887,9.919-9.426,9.919h-5.154V38.389h5.154C243.379,38.389,248.266,41.493,248.266,48.31"/>
	<path fill="#585857" d="M255.83,36.86c-0.367,0-0.666,0.313-0.666,0.698v21.469c0,0.384,0.299,0.698,0.666,0.698
		c0.379,0,0.697-0.32,0.697-0.698V37.558C256.527,37.18,256.209,36.86,255.83,36.86"/>
	<path fill="#585857" d="M281.268,53.981c-0.178,0.026-0.334,0.122-0.43,0.266c-1.881,2.925-4.51,4.408-7.816,4.408
		c-6.023,0-9.625-5.26-9.625-10.346c0-5.07,3.602-10.314,9.625-10.314c2.576,0,4.859,1.029,6.791,3.063
		c0.258,0.255,0.646,0.269,0.881,0.032c0.098-0.096,0.225-0.25,0.225-0.475c0-0.164-0.096-0.346-0.186-0.434
		c-2.049-2.237-4.715-3.419-7.711-3.419c-6.787,0-10.988,5.994-10.988,11.547c0,5.569,4.201,11.579,10.988,11.579
		c3.682,0,6.584-1.598,8.879-4.886l0.002-0.004c0.102-0.151,0.102-0.266,0.102-0.377c0-0.178-0.082-0.363-0.256-0.534
		C281.613,53.996,281.441,53.958,281.268,53.981"/>
	<path fill="#585857" d="M306.271,59.672c0.252-0.106,0.383-0.388,0.383-0.614c0-0.102-0.037-0.168-0.086-0.251
		c-9.762-20.8-10.08-21.508-10.094-21.539c-0.096-0.188-0.322-0.408-0.645-0.408c-0.346,0-0.566,0.247-0.629,0.42
		c-0.049,0.071-3.732,7.917-10.105,21.52c-0.057,0.11-0.057,0.182-0.057,0.258c0,0.229,0.135,0.514,0.375,0.61
		c0.109,0.057,0.215,0.057,0.291,0.057c0.256,0,0.49-0.158,0.582-0.382l3.297-7.049h12.525l3.293,7.039
		c0.096,0.234,0.33,0.392,0.586,0.392C306.062,59.726,306.164,59.726,306.271,59.672 M301.523,51.062h-11.385l5.691-12.132
		L301.523,51.062z"/>
	<path fill="#585857" d="M325.252,58.829c0-0.342-0.258-0.6-0.6-0.6h-12.254V37.558c0-0.378-0.32-0.698-0.699-0.698
		S311,37.18,311,37.558v21.206c0,0.378,0.32,0.698,0.699,0.698h12.953C324.988,59.462,325.252,59.184,325.252,58.829"/>
	<path fill="#585857" d="M203.084,116.986c-0.166,0.033-0.307,0.124-0.396,0.26c-1.878,2.925-4.508,4.408-7.816,4.408
		c-6.023,0-9.624-5.26-9.624-10.346c0-5.071,3.601-10.315,9.624-10.315c2.576,0,4.859,1.03,6.792,3.064
		c0.256,0.254,0.646,0.267,0.883,0.03c0.104-0.104,0.223-0.252,0.223-0.474c0-0.164-0.098-0.346-0.186-0.435
		c-2.049-2.236-4.716-3.42-7.712-3.42c-6.787,0-10.986,5.995-10.986,11.549c0,5.568,4.199,11.578,10.986,11.578
		c3.682,0,6.585-1.599,8.88-4.886l0.004-0.005c0.1-0.151,0.1-0.265,0.1-0.376c0-0.179-0.082-0.364-0.256-0.534
		C203.451,116.987,203.264,116.951,203.084,116.986"/>
	<path fill="#585857" d="M224.584,99.858c-0.367,0-0.666,0.313-0.666,0.698v9.986h-13.691v-9.986c0-0.378-0.32-0.698-0.699-0.698
		c-0.367,0-0.666,0.313-0.666,0.698v21.501c0,0.379,0.287,0.666,0.666,0.666c0.385,0,0.699-0.299,0.699-0.666v-10.281h13.691v10.281
		c0,0.373,0.293,0.666,0.666,0.666c0.387,0,0.699-0.299,0.699-0.666v-21.501C225.283,100.179,224.963,99.858,224.584,99.858"/>
	<path fill="#585857" d="M221.281,91.643c0.039,0,0.078-0.003,0.117-0.011c0.326-0.05,0.6-0.367,0.6-0.695V69.469
		c0-0.379-0.32-0.699-0.697-0.699c-0.369,0-0.666,0.314-0.666,0.699v19.427l-13.668-19.78c-0.121-0.161-0.305-0.346-0.658-0.346
		c-0.367,0-0.666,0.314-0.666,0.699v21.468c0,0.386,0.299,0.698,0.666,0.698c0.379,0,0.699-0.32,0.699-0.698V71.475l13.721,19.863
		C220.842,91.526,221.059,91.643,221.281,91.643"/>
	<path fill="#585857" d="M246.604,79.685h-7.562c-0.34,0-0.598,0.258-0.598,0.6c0,0.355,0.264,0.633,0.598,0.633h6.865v5.549
		c-1.314,1.883-3.74,4.099-7.885,4.099c-4.746,0-9.654-3.869-9.654-10.346c0-5.071,3.611-10.315,9.654-10.315
		c2.557,0,4.828,1.03,6.762,3.064c0.258,0.255,0.643,0.269,0.85,0.057c0.156-0.104,0.254-0.3,0.254-0.5
		c0-0.14-0.043-0.278-0.15-0.434c-2.051-2.237-4.719-3.42-7.715-3.42c-6.076,0-11.02,5.18-11.02,11.548
		c0,5.569,4.213,11.579,11.02,11.579c3.803,0,6.771-1.577,9.078-4.82l0.004-0.004c0.074-0.11,0.166-0.249,0.166-0.477v-6.115
		C247.27,79.998,246.971,79.685,246.604,79.685"/>
	<path fill="#585857" d="M254.422,68.771c-0.365,0-0.666,0.313-0.666,0.698v21.469c0,0.384,0.301,0.698,0.666,0.698
		c0.379,0,0.697-0.32,0.697-0.698V69.468C255.119,69.09,254.801,68.771,254.422,68.771"/>
	<path fill="#585857" d="M278.254,68.771c-0.367,0-0.664,0.313-0.664,0.698v19.428l-13.668-19.779
		c-0.109-0.149-0.299-0.347-0.658-0.347c-0.367,0-0.664,0.313-0.664,0.698v21.469c0,0.384,0.297,0.698,0.664,0.698
		c0.379,0,0.697-0.32,0.697-0.698V71.475l13.723,19.862c0.113,0.19,0.33,0.307,0.555,0.307c0.039,0,0.078-0.004,0.117-0.012
		c0.33-0.051,0.598-0.361,0.598-0.694V69.468C278.953,69.09,278.633,68.771,278.254,68.771"/>
	<path fill="#585857" d="M341.623,75.09c0-3.491-2.477-6.025-5.893-6.025H325.67c-0.373,0-0.666,0.293-0.666,0.667v21.236
		c0,0.373,0.293,0.666,0.666,0.666c0.385,0,0.699-0.299,0.699-0.666v-9.92h8.838l4.934,10.226c0.107,0.266,0.4,0.36,0.619,0.36
		c0.076,0,0.148,0,0.246-0.05c0.158-0.067,0.281-0.193,0.346-0.353c0.064-0.164,0.062-0.345-0.012-0.518l-4.709-9.735
		C339.541,80.553,341.623,78.121,341.623,75.09 M340.26,75.09c0,2.739-1.904,4.726-4.529,4.726h-9.361v-9.517h9.361
		C338.355,70.299,340.26,72.314,340.26,75.09"/>
	<path fill="#585857" d="M348.775,68.771c-0.367,0-0.666,0.313-0.666,0.698v21.469c0,0.384,0.299,0.698,0.666,0.698
		c0.379,0,0.697-0.32,0.697-0.698V69.468C349.473,69.09,349.154,68.771,348.775,68.771"/>
	<path fill="#585857" d="M372.607,68.771c-0.367,0-0.664,0.313-0.664,0.698v19.428l-13.668-19.779
		c-0.109-0.149-0.299-0.347-0.658-0.347c-0.367,0-0.664,0.313-0.664,0.698v21.469c0,0.384,0.297,0.698,0.664,0.698
		c0.379,0,0.697-0.32,0.697-0.698V71.475l13.723,19.862c0.113,0.19,0.33,0.307,0.555,0.307c0.039,0,0.078-0.004,0.117-0.012
		c0.33-0.051,0.598-0.361,0.598-0.694V69.468C373.307,69.09,372.986,68.771,372.607,68.771"/>
	<path fill="#585857" d="M397.912,79.685h-7.561c-0.342,0-0.6,0.258-0.6,0.6c0,0.355,0.264,0.633,0.6,0.633h6.863v5.549
		c-1.314,1.883-3.738,4.099-7.885,4.099c-4.746,0-9.654-3.869-9.654-10.346c0-5.071,3.611-10.315,9.654-10.315
		c2.557,0,4.828,1.03,6.762,3.064c0.258,0.255,0.643,0.267,0.852,0.056c0.154-0.104,0.252-0.3,0.252-0.499
		c0-0.14-0.043-0.278-0.15-0.434c-2.051-2.237-4.719-3.42-7.715-3.42c-6.076,0-11.02,5.18-11.02,11.548
		c0,5.569,4.213,11.579,11.02,11.579c3.803,0,6.771-1.577,9.078-4.82l0.004-0.004c0.074-0.11,0.166-0.249,0.166-0.477v-6.115
		C398.578,79.998,398.279,79.685,397.912,79.685"/>
	<path fill="#585857" d="M199.545,70.284c0.344,0,0.632-0.291,0.632-0.634c0-0.337-0.277-0.601-0.632-0.601h-13.019
		c-0.379,0-0.666,0.287-0.666,0.667v20.942c0,0.384,0.299,0.698,0.666,0.698h13.511c0.343,0,0.602-0.26,0.602-0.602
		c0-0.354-0.265-0.632-0.602-0.632h-12.812v-9.977h11.824c0.336,0,0.601-0.278,0.601-0.633c0-0.342-0.258-0.6-0.601-0.6h-11.824
		v-8.629H199.545z"/>
	<path fill="#585857" d="M300.107,90.123h-12.814v-9.977h11.824c0.338,0,0.602-0.278,0.602-0.632c0-0.343-0.258-0.601-0.602-0.601
		h-11.824v-8.629h12.32c0.344,0,0.633-0.29,0.633-0.634c0-0.337-0.277-0.601-0.633-0.601h-13.018c-0.381,0-0.666,0.287-0.666,0.667
		v20.942c0,0.384,0.299,0.697,0.666,0.697h13.512c0.342,0,0.6-0.258,0.6-0.601C300.707,90.401,300.443,90.123,300.107,90.123"/>
	<path fill="#585857" d="M319.893,90.123H307.08v-9.977h11.826c0.336,0,0.598-0.278,0.598-0.632c0-0.343-0.256-0.601-0.598-0.601
		H307.08v-8.629h12.32c0.344,0,0.633-0.29,0.633-0.634c0-0.337-0.277-0.601-0.633-0.601h-13.02c-0.373,0-0.664,0.293-0.664,0.667
		v20.942c0,0.384,0.297,0.697,0.664,0.697h13.512c0.342,0,0.602-0.258,0.602-0.601C320.494,90.401,320.229,90.123,319.893,90.123"/>
	<path fill="#0097A7" d="M79.823,0C35.739,0,0,35.738,0,79.826c0,44.085,35.739,79.823,79.823,79.823
		c44.09,0,79.824-35.737,79.824-79.823C159.647,35.738,123.913,0,79.823,0"/>
	<path fill="#FFFFFF" d="M134.953,98.755c0,3.531-2.861,6.395-6.391,6.395H90.21c-3.53,0-6.393-2.863-6.393-6.395
		c0-3.529,2.863-6.391,6.393-6.391h38.352C132.092,92.364,134.953,95.226,134.953,98.755 M128.562,73.187H90.21
		c-3.53,0-6.393,2.862-6.393,6.393c0,3.53,2.863,6.392,6.393,6.392h38.352c3.53,0,6.391-2.862,6.391-6.392
		C134.953,76.048,132.092,73.187,128.562,73.187 M90.21,66.793h38.352c3.53,0,6.391-2.86,6.391-6.391
		c0-3.53-2.861-6.391-6.391-6.391H90.21c-3.53,0-6.393,2.861-6.393,6.391C83.817,63.934,86.68,66.793,90.21,66.793 M38.186,60.005
		v39.152c0,3.604-2.86,6.525-6.391,6.525c-3.531,0-6.394-2.921-6.394-6.525V60.005c0-3.604,2.863-6.527,6.394-6.527
		C35.326,53.479,38.186,56.401,38.186,60.005 M50.971,53.479c-3.53,0-6.392,2.923-6.392,6.527v39.152
		c0,3.604,2.862,6.525,6.392,6.525c3.531,0,6.393-2.921,6.393-6.525V60.005C57.364,56.401,54.502,53.479,50.971,53.479
		 M70.148,53.479c-3.53,0-6.392,2.923-6.392,6.527v39.152c0,3.604,2.862,6.525,6.392,6.525c3.53,0,6.392-2.921,6.392-6.525V60.005
		C76.541,56.401,73.678,53.479,70.148,53.479"/>
</g>
</svg>
